[Ivy]
17857B92D0156D6B 7.5.0 #module
>Proto >Proto Collection #zClass
Es0 EmployeeComponentProcess Big #zClass
Es0 RD #cInfo
Es0 #process
Es0 @AnnotationInP-0n ai ai #zField
Es0 @TextInP .type .type #zField
Es0 @TextInP .processKind .processKind #zField
Es0 @TextInP .xml .xml #zField
Es0 @TextInP .responsibility .responsibility #zField
Es0 @UdInit f0 '' #zField
Es0 @UdProcessEnd f1 '' #zField
Es0 @PushWFArc f2 '' #zField
>Proto Es0 Es0 EmployeeComponentProcess #zField
Es0 f0 guid 17857B92D21FC976 #txt
Es0 f0 method start() #txt
Es0 f0 inParameterDecl '<> param;' #txt
Es0 f0 outParameterDecl '<> result;' #txt
Es0 f0 @C|.xml '<?xml version="1.0" encoding="UTF-8" standalone="yes"?>
<elementInfo>
    <language>
        <name>start()</name>
    </language>
</elementInfo>
' #txt
Es0 f0 83 51 26 26 -16 15 #rect
Es0 f0 @|UdInitIcon #fIcon
Es0 f1 211 51 26 26 0 12 #rect
Es0 f1 @|UdProcessEndIcon #fIcon
Es0 f2 109 64 211 64 #arcP
>Proto Es0 .type app.EmployeeComponent.EmployeeComponentData #txt
>Proto Es0 .processKind HTML_DIALOG #txt
>Proto Es0 -8 -8 16 16 16 26 #rect
>Proto Es0 '' #fIcon
Es0 f0 mainOut f2 tail #connect
Es0 f2 head f1 mainIn #connect
