[Ivy]
1783A23B8234C493 7.5.0 #module
>Proto >Proto Collection #zClass
Vs0 ValidateBeanProcess Big #zClass
Vs0 RD #cInfo
Vs0 #process
Vs0 @AnnotationInP-0n ai ai #zField
Vs0 @TextInP .type .type #zField
Vs0 @TextInP .processKind .processKind #zField
Vs0 @TextInP .xml .xml #zField
Vs0 @TextInP .responsibility .responsibility #zField
Vs0 @UdInit f0 '' #zField
Vs0 @UdProcessEnd f1 '' #zField
Vs0 @PushWFArc f2 '' #zField
Vs0 @UdEvent f3 '' #zField
Vs0 @UdExitEnd f4 '' #zField
Vs0 @PushWFArc f5 '' #zField
Vs0 @UdEvent f6 '' #zField
>Proto Vs0 Vs0 ValidateBeanProcess #zField
Vs0 f0 guid 1783A23B83E68D4A #txt
Vs0 f0 method start() #txt
Vs0 f0 inParameterDecl '<> param;' #txt
Vs0 f0 inParameterMapAction 'out.Person=new entity.Person();
' #txt
Vs0 f0 outParameterDecl '<> result;' #txt
Vs0 f0 @C|.xml '<?xml version="1.0" encoding="UTF-8" standalone="yes"?>
<elementInfo>
    <language>
        <name>start()</name>
    </language>
</elementInfo>
' #txt
Vs0 f0 84 52 24 24 -16 15 #rect
Vs0 f0 @|UdInitIcon #fIcon
Vs0 f1 211 51 26 26 0 12 #rect
Vs0 f1 @|UdProcessEndIcon #fIcon
Vs0 f2 108 64 211 64 #arcP
Vs0 f3 guid 1783A23B84EC529C #txt
Vs0 f3 actionTable 'out=in;
' #txt
Vs0 f3 @C|.xml '<?xml version="1.0" encoding="UTF-8" standalone="yes"?>
<elementInfo>
    <language>
        <name>close</name>
    </language>
</elementInfo>
' #txt
Vs0 f3 83 147 26 26 -15 15 #rect
Vs0 f3 @|UdEventIcon #fIcon
Vs0 f4 211 147 26 26 0 12 #rect
Vs0 f4 @|UdExitEndIcon #fIcon
Vs0 f5 109 160 211 160 #arcP
Vs0 f6 guid 1783A3342DF6FD67 #txt
Vs0 f6 actionTable 'out=in;
' #txt
Vs0 f6 @C|.xml '<?xml version="1.0" encoding="UTF-8" standalone="yes"?>
<elementInfo>
    <language>
        <name>Send</name>
    </language>
</elementInfo>
' #txt
Vs0 f6 83 275 26 26 -14 15 #rect
Vs0 f6 @|UdEventIcon #fIcon
>Proto Vs0 .type app.ValidateBean.ValidateBeanData #txt
>Proto Vs0 .processKind HTML_DIALOG #txt
>Proto Vs0 -8 -8 16 16 16 26 #rect
>Proto Vs0 '' #fIcon
Vs0 f0 mainOut f2 tail #connect
Vs0 f2 head f1 mainIn #connect
Vs0 f3 mainOut f5 tail #connect
Vs0 f5 head f4 mainIn #connect
